<svg height="100%" viewBox="0 0 19 18" fill="none" xmlns="http://www.w3.org/2000/svg">
<path fill-rule="evenodd" clip-rule="evenodd" d="M5.54134 2.25H13.458C14.3288 2.25 15.0413 2.925 15.0413 3.75V15.75L9.49967 13.5L3.95801 15.75V3.75C3.95801 2.925 4.67051 2.25 5.54134 2.25ZM9.49967 11.865L13.458 13.5V3.75H5.54134V13.5L9.49967 11.865Z" fill="#999" />
</svg>
