<svg width="91" height="59" viewBox="0 0 91 59" fill="none" xmlns="http://www.w3.org/2000/svg">
<path d="M0.68775 16.7226L9.33775 19.6026V45.2326C7.94069 45.4687 6.67227 46.1917 5.75713 47.2734C4.842 48.355 4.33919 49.7257 4.33775 51.1426V56.1426C4.33775 56.4078 4.44311 56.6622 4.63064 56.8497C4.81818 57.0372 5.07253 57.1426 5.33775 57.1426H15.3377C15.603 57.1426 15.8573 57.0372 16.0449 56.8497C16.2324 56.6622 16.3377 56.4078 16.3377 56.1426V51.1426C16.3363 49.7257 15.8335 48.355 14.9184 47.2734C14.0032 46.1917 12.7348 45.4687 11.3377 45.2326V20.2326L17.2477 22.2326V40.7526C17.2477 43.2426 18.8377 46.7526 26.3977 49.2126C32.546 51.0145 38.9318 51.8743 45.3377 51.7626C59.3377 51.7626 73.4178 48.3626 73.4178 40.7626V22.2426L89.9978 16.7226C90.1978 16.6568 90.372 16.5296 90.4955 16.359C90.619 16.1884 90.6855 15.9832 90.6855 15.7726C90.6855 15.562 90.619 15.3568 90.4955 15.1862C90.372 15.0156 90.1978 14.8883 89.9978 14.8226L45.6577 0.0525825C45.4502 -0.0175275 45.2253 -0.0175275 45.0177 0.0525825L0.68775 14.8426C0.487682 14.9083 0.313481 15.0356 0.189984 15.2062C0.0664877 15.3768 0 15.582 0 15.7926C0 16.0032 0.0664877 16.2084 0.189984 16.379C0.313481 16.5496 0.487682 16.6768 0.68775 16.7426V16.7226ZM14.3377 55.1426H6.33775V52.1426H14.3377V55.1426ZM14.2078 50.1426H6.46775C6.69148 49.2866 7.19269 48.5289 7.89295 47.9882C8.59321 47.4474 9.453 47.1541 10.3377 47.1541C11.2225 47.1541 12.0823 47.4474 12.7825 47.9882C13.4828 48.5289 13.984 49.2866 14.2078 50.1426ZM71.4078 40.7526C71.4078 46.6026 57.9678 49.7526 45.3278 49.7526C32.6878 49.7526 19.2477 46.5926 19.2477 40.7526V38.0226C21.279 39.9057 23.7302 41.277 26.3977 42.0226C32.5481 43.811 38.9339 44.6573 45.3377 44.5326C56.1577 44.5326 67.0478 42.5326 71.4178 38.0426L71.4078 40.7526ZM71.4078 33.5326C71.4078 39.3726 57.9678 42.5326 45.3278 42.5326C32.6878 42.5326 19.2477 39.3726 19.2477 33.5326V22.9026L45.0177 31.4926C45.2253 31.5627 45.4502 31.5627 45.6577 31.4926L71.4078 22.9126V33.5326ZM17.2477 11.4126L18.2477 11.0826L19.2477 10.7526L22.2477 9.75258L45.3377 2.05258L68.4378 9.75258L71.4378 10.7526L72.4378 11.0726L73.4378 11.4126L86.5378 15.7726L73.4378 20.1326L72.4378 20.4626L71.4378 20.8026L45.3377 29.4826L19.2477 20.8426L18.2477 20.5126L17.2477 20.1726L15.1077 19.4626L17.2477 19.2526L18.2477 19.1526L19.2477 19.0526L40.4577 16.9626C41.1677 18.0826 42.9978 18.8226 45.3278 18.8226C48.3278 18.8226 50.5378 17.5926 50.5378 15.8926C50.5378 14.1926 48.3377 12.9126 45.3377 12.9126C42.9177 12.9126 41.0478 13.7126 40.3978 14.9126L19.2477 16.9926L18.2477 17.0926L17.2477 17.1926L10.4478 17.8626L4.16775 15.7726L17.2477 11.4126ZM42.1177 15.8426C42.2077 15.5826 43.3278 14.8426 45.3278 14.8426C47.3278 14.8426 48.3877 15.4926 48.5277 15.7726C48.3877 16.0526 47.2778 16.7026 45.3278 16.7026C43.3778 16.7026 42.2077 16.0826 42.1177 15.8426Z" fill="black"/>
</svg>
