<svg width="271" height="300" viewBox="0 0 271 300" fill="none" xmlns="http://www.w3.org/2000/svg">
<path d="M237.805 109.756C237.805 101.671 231.256 95.122 223.171 95.122H212.195V102.439C212.195 106.463 208.902 109.756 204.878 109.756H65.8537C61.8293 109.756 58.5366 106.463 58.5366 102.439V95.122H47.561C39.4756 95.122 32.9268 101.671 32.9268 109.756V147.037C51.622 150.512 65.8537 166.902 65.8537 186.585V263.415H204.878V186.585C204.878 166.902 219.11 150.512 237.805 147.037V109.756ZM135.366 182.927C121.244 182.927 109.756 171.439 109.756 157.317C109.756 143.195 121.244 131.707 135.366 131.707C149.488 131.707 160.976 143.195 160.976 157.317C160.976 171.439 149.488 182.927 135.366 182.927ZM146.341 157.317C146.341 163.354 141.402 168.293 135.366 168.293C129.329 168.293 124.39 163.354 124.39 157.317C124.39 151.28 129.329 146.341 135.366 146.341C141.402 146.341 146.341 151.28 146.341 157.317ZM51.2195 186.585V274.39C51.2195 288.512 39.7317 300 25.6098 300C11.4878 300 0 288.512 0 274.39V186.585C0 172.463 11.4878 160.976 25.6098 160.976C39.7317 160.976 51.2195 172.463 51.2195 186.585ZM270.732 186.585V274.39C270.732 288.512 259.244 300 245.122 300C231 300 219.512 288.512 219.512 274.39V186.585C219.512 172.463 231 160.976 245.122 160.976C259.244 160.976 270.732 172.463 270.732 186.585ZM197.561 62.1951C197.561 27.9146 169.646 0 135.366 0C101.085 0 73.1707 27.9146 73.1707 62.1951V95.122H197.561V62.1951ZM107.598 71.0122C106.244 72.4024 104.378 73.1707 102.439 73.1707C101.963 73.1707 101.488 73.1341 101.012 73.0244C100.537 72.9146 100.098 72.8049 99.622 72.622C99.1829 72.439 98.7805 72.1829 98.378 71.9268C97.9756 71.6707 97.6098 71.378 97.2805 71.0122C95.8902 69.6585 95.122 67.7927 95.122 65.8537C95.122 63.9146 95.8902 62.0488 97.2805 60.6585C97.6098 60.3293 97.9756 60.0366 98.378 59.7805C98.7805 59.5244 99.1829 59.2683 99.622 59.0854C100.098 58.9024 100.537 58.7561 101.012 58.6829C103.39 58.2073 105.915 58.9756 107.598 60.6585C108.988 62.0488 109.756 63.9146 109.756 65.8537C109.756 67.7927 108.988 69.6585 107.598 71.0122ZM175.463 67.2805C175.39 67.7561 175.244 68.1951 175.061 68.6707C174.878 69.1098 174.622 69.5122 174.366 69.9146C174.11 70.3171 173.817 70.6829 173.451 71.0122C172.098 72.4024 170.195 73.1707 168.293 73.1707C167.817 73.1707 167.341 73.1341 166.866 73.0244C166.39 72.9512 165.915 72.8049 165.476 72.622C165.037 72.439 164.634 72.1829 164.232 71.9268C163.829 71.6707 163.463 71.378 163.098 71.0122C162.768 70.6829 162.476 70.3171 162.22 69.9146C161.927 69.5122 161.707 69.1098 161.524 68.6707C161.341 68.1951 161.195 67.7561 161.122 67.2805C161.012 66.8049 160.976 66.3293 160.976 65.8537C160.976 63.9146 161.744 62.0488 163.098 60.6951C163.463 60.3293 163.829 60.0366 164.232 59.7805C164.634 59.5244 165.037 59.2683 165.476 59.0854C165.915 58.9024 166.39 58.7561 166.866 58.6829C169.244 58.2073 171.768 58.9756 173.451 60.6951C173.817 61.0244 174.11 61.3902 174.366 61.7927C174.622 62.1951 174.878 62.5976 175.061 63.0732C175.244 63.5122 175.39 63.9512 175.463 64.4268C175.573 64.9024 175.61 65.3781 175.61 65.8537C175.61 66.3293 175.573 66.8049 175.463 67.2805Z" fill="#C801B4"/>
</svg>
