<svg width="60" height="77" viewBox="0 0 60 77" fill="none" xmlns="http://www.w3.org/2000/svg">
<path d="M46.3564 44.7197H28.0624V49.3074H46.3564V44.7197Z" fill="black"/>
<path d="M46.3564 36.9199H28.0624V41.5088H46.3564V36.9199Z" fill="black"/>
<path d="M60 22.034L59.9385 22.0956H59.2249L37.7605 0.750461V0.0738152L37.8343 0L60 22.034Z" fill="black"/>
<path d="M37.8429 22.034V0H4.74882C2.12836 0 0 2.12836 0 4.74882V71.3799C0 74.0004 2.12836 76.1275 4.74882 76.1275H55.2512C57.8717 76.1275 59.9988 74.0004 59.9988 71.3799V22.034H37.8429ZM49.7027 61.4394H10.814V33.3771H49.7027V61.4394Z" fill="black"/>
<path d="M46.3564 52.5322H28.0624V57.1088H46.3564V52.5322Z" fill="black"/>
<path d="M24.5191 44.7197H14.0988V49.3074H24.5191V44.7197Z" fill="black"/>
<path d="M24.5217 36.918H14.094V41.5081H24.5217V36.918Z" fill="black"/>
<path d="M24.5191 52.5322H14.0988V57.1088H24.5191V52.5322Z" fill="black"/>
<path d="M14.0988 36.9199V41.5088H24.5191V36.9199H14.0988Z" fill="black"/>
</svg>
