<svg height="100%" viewBox="0 0 21 23" fill="inherit" xmlns="http://www.w3.org/2000/svg">
    <path d="M18.2002 11H14.2002V1L6.2002 1V11H2.2002L10.2002 21L18.2002 11Z" fill="inherit"/>
    <path d="M18.2002 11L18.9811 11.6247L20.2808 10H18.2002V11ZM14.2002 11H13.2002V12H14.2002V11ZM14.2002 1H15.2002V0H14.2002V1ZM6.2002 1V0H5.2002V1H6.2002ZM6.2002 11V12H7.2002V11H6.2002ZM2.2002 11V10H0.11957L1.41933 11.6247L2.2002 11ZM10.2002 21L9.41933 21.6247L10.2002 22.6008L10.9811 21.6247L10.2002 21ZM18.2002 10H14.2002V12H18.2002V10ZM15.2002 11V1H13.2002V11H15.2002ZM14.2002 0L6.2002 0V2L14.2002 2V0ZM5.2002 1V11H7.2002V1H5.2002ZM6.2002 10H2.2002V12H6.2002V10ZM1.41933 11.6247L9.41933 21.6247L10.9811 20.3753L2.98106 10.3753L1.41933 11.6247ZM10.9811 21.6247L18.9811 11.6247L17.4193 10.3753L9.41933 20.3753L10.9811 21.6247Z" fill="inherit"/>
</svg>
