<svg width="20" height="20" viewBox="0 0 20 20" fill="none" xmlns="http://www.w3.org/2000/svg">
<g id="event_24px">
<path id="icon/action/event_24px" fill-rule="evenodd" clip-rule="evenodd" d="M15 3.33317H15.8333C16.75 3.33317 17.5 4.08317 17.5 4.99984V16.6665C17.5 17.5832 16.75 18.3332 15.8333 18.3332H4.16667C3.24167 18.3332 2.5 17.5832 2.5 16.6665L2.50833 4.99984C2.50833 4.08317 3.24167 3.33317 4.16667 3.33317H5V1.6665H6.66667V3.33317H13.3333V1.6665H15V3.33317ZM4.16674 16.6665H15.8334V8.33318H4.16674V16.6665ZM15.8334 6.66649H4.16674V4.99982H15.8334V6.66649ZM14.1666 10.8332H9.9999V14.9999H14.1666V10.8332Z" fill="black"/>
</g>
</svg>
