<svg height="100%" viewBox="0 0 30 30" fill="inherit" xmlns="http://www.w3.org/2000/svg">
    <path d="M30 15.0914C30 6.75575 23.2852 0 15 0C6.71484 0 0 6.75575 0 15.0914C0 22.6253 5.48438 28.8681 12.6562 30V19.4537H8.84766V15.0914H12.6562V11.7666C12.6562 7.98487 14.8945 5.89507 18.3223 5.89507C19.9629 5.89507 21.6797 6.18982 21.6797 6.18982V9.90371H19.7871C17.9238 9.90371 17.3438 11.068 17.3438 12.2617V15.0914H21.5039L20.8389 19.4537H17.3438V30C24.5156 28.8681 30 22.6253 30 15.0914Z"/>
</svg>
