<svg width="30" height="30" viewBox="0 0 30 30" fill="none" xmlns="http://www.w3.org/2000/svg">
    <rect x="1" y="1" width="28" height="28" rx="14" fill="#121212" stroke="black" stroke-width="2"/>
    <path fill-rule="evenodd" clip-rule="evenodd" d="M15 7C12.79 7 11 8.79 11 11C11 13.21 12.79 15 15 15C17.21 15 19 13.21 19 11C19 8.79 17.21 7 15 7ZM17 11C17 9.9 16.1 9 15 9C13.9 9 13 9.9 13 11C13 12.1 13.9 13 15 13C16.1 13 17 12.1 17 11ZM21 20C20.8 19.29 17.7 18 15 18C12.3 18 9.2 19.29 9 20.01V21H21V20ZM7 20C7 17.34 12.33 16 15 16C17.67 16 23 17.34 23 20V23H7V20Z" fill="white"/>
</svg>
