<svg width="95" height="95" viewBox="0 0 95 95" fill="none" xmlns="http://www.w3.org/2000/svg">
<path d="M47.5 0C21.3088 0 0 21.3088 0 47.5C0 73.6912 21.3088 95 47.5 95C73.6912 95 95 73.6912 95 47.5C95 21.3088 73.6912 0 47.5 0ZM47.5 3.39286C71.8217 3.39286 91.6071 23.18 91.6071 47.5C91.6071 71.82 71.8217 91.6071 47.5 91.6071C23.1783 91.6071 3.39286 71.82 3.39286 47.5C3.39286 23.18 23.1783 3.39286 47.5 3.39286ZM27.1429 27.1429C26.2047 27.1429 25.4464 27.9029 25.4464 28.8393C25.4464 29.7757 26.2047 30.5357 27.1429 30.5357H67.8571C68.7953 30.5357 69.5536 29.7757 69.5536 28.8393C69.5536 27.9029 68.7953 27.1429 67.8571 27.1429H27.1429ZM27.1429 45.8036C26.2047 45.8036 25.4464 46.5636 25.4464 47.5C25.4464 48.4364 26.2047 49.1964 27.1429 49.1964H67.8571C68.7953 49.1964 69.5536 48.4364 69.5536 47.5C69.5536 46.5636 68.7953 45.8036 67.8571 45.8036H27.1429ZM27.1429 64.4643C26.2047 64.4643 25.4464 65.2243 25.4464 66.1607C25.4464 67.0971 26.2047 67.8571 27.1429 67.8571H67.8571C68.7953 67.8571 69.5536 67.0971 69.5536 66.1607C69.5536 65.2243 68.7953 64.4643 67.8571 64.4643H27.1429Z" fill="black"/>
</svg>
