<svg width="60" height="60" viewBox="0 0 60 60" fill="none" xmlns="http://www.w3.org/2000/svg">
<path d="M58.125 13.333H1.875C1.62873 13.3329 1.38485 13.3759 1.15729 13.4596C0.929741 13.5433 0.722984 13.6661 0.548845 13.8209C0.374705 13.9757 0.236601 14.1594 0.142426 14.3617C0.0482505 14.564 -0.000147557 14.7808 3.37932e-07 14.9997V58.333C-0.000147557 58.5519 0.0482505 58.7687 0.142426 58.971C0.236601 59.1732 0.374705 59.357 0.548845 59.5118C0.722984 59.6666 0.929741 59.7894 1.15729 59.8731C1.38485 59.9568 1.62873 59.9998 1.875 59.9997H58.125C58.3713 59.9998 58.6152 59.9568 58.8427 59.8731C59.0703 59.7894 59.277 59.6666 59.4512 59.5118C59.6253 59.357 59.7634 59.1732 59.8576 58.971C59.9518 58.7687 60.0001 58.5519 60 58.333V14.9997C60.0001 14.7808 59.9518 14.564 59.8576 14.3617C59.7634 14.1594 59.6253 13.9757 59.4512 13.8209C59.277 13.6661 59.0703 13.5433 58.8427 13.4596C58.6152 13.3759 58.3713 13.3329 58.125 13.333V13.333ZM56.25 56.6663H3.75V16.6663H56.25V56.6663Z" fill="black"/>
<path d="M9.375 10.0003H50.625C51.1223 10.0003 51.5992 9.82473 51.9508 9.51217C52.3025 9.19961 52.5 8.77569 52.5 8.33366C52.5 7.89163 52.3025 7.46771 51.9508 7.15515C51.5992 6.84259 51.1223 6.66699 50.625 6.66699H9.375C8.87772 6.66699 8.40081 6.84259 8.04918 7.15515C7.69754 7.46771 7.5 7.89163 7.5 8.33366C7.5 8.77569 7.69754 9.19961 8.04918 9.51217C8.40081 9.82473 8.87772 10.0003 9.375 10.0003V10.0003Z" fill="black"/>
<path d="M16.875 3.33333H43.125C43.6223 3.33333 44.0992 3.15774 44.4508 2.84518C44.8025 2.53262 45 2.10869 45 1.66667C45 1.22464 44.8025 0.800716 44.4508 0.488156C44.0992 0.175595 43.6223 0 43.125 0H16.875C16.3777 0 15.9008 0.175595 15.5492 0.488156C15.1975 0.800716 15 1.22464 15 1.66667C15 2.10869 15.1975 2.53262 15.5492 2.84518C15.9008 3.15774 16.3777 3.33333 16.875 3.33333Z" fill="black"/>
<path d="M23.4668 46.4587C23.7597 46.6027 24.0905 46.6744 24.425 46.6664C24.7595 46.6584 25.0856 46.5709 25.3692 46.4131L40.3692 38.0798C40.6388 37.93 40.861 37.7217 41.0151 37.4746C41.1692 37.2275 41.25 36.9496 41.25 36.667C41.25 36.3845 41.1692 36.1066 41.0151 35.8594C40.861 35.6123 40.6388 35.404 40.3692 35.2543L25.3692 26.9209C25.0855 26.763 24.7593 26.6755 24.4247 26.6676C24.09 26.6596 23.7591 26.7315 23.4662 26.8757C23.1734 27.0199 22.9293 27.2311 22.7594 27.4875C22.5895 27.7439 22.4999 28.0361 22.5 28.3337V45.0003C22.5001 45.298 22.5899 45.5902 22.7599 45.8466C22.9299 46.103 23.174 46.3144 23.4668 46.4587V46.4587ZM26.25 31.3415L35.8374 36.667L26.25 41.9925V31.3415Z" fill="black"/>
</svg>
