<svg width="40" height="40" viewBox="0 0 40 40" fill="none" xmlns="http://www.w3.org/2000/svg">
<path fill-rule="evenodd" clip-rule="evenodd" d="M11.3982 2.75966H21.621V7.42386H11.3982V2.75966ZM27.7248 15.8347H27.7392V7.34451C27.7392 6.69029 28.2108 6.21946 28.7807 6.15539L38.9577 5.00624C39.5276 4.94217 40.0136 5.54172 39.9997 6.19536L39.7305 18.8384C39.974 20.9315 38.5525 22.8031 36.6915 22.8031C34.9987 22.8031 33.6262 21.2366 33.6262 19.3033C33.6262 17.37 34.9987 15.803 36.6915 15.803C36.8794 15.803 37.0632 15.8224 37.2418 15.8594L37.3242 11.2069L30.668 12.2879V18.3552C31.2338 20.5747 29.78 22.8348 27.7248 22.8348C26.0315 22.8348 24.659 21.2672 24.659 19.3345C24.659 17.4012 26.0315 15.8347 27.7248 15.8347V15.8347ZM7.54834 35.6295L1.08885 39.8875C0.601828 40.2096 0.000514957 39.7993 0.0015446 39.1716L0 30.6455C0 29.9748 0.657429 29.5922 1.13158 29.9578L7.55606 34.1929C8.04617 34.5168 8.03021 35.3215 7.54834 35.6295ZM11.3982 32.5764H37.9507V37.2401H11.3982V32.5764ZM7.54834 20.7217L1.08885 24.9791C0.601828 25.3012 0.000514957 24.891 0.0015446 24.2638L0 15.7371C0 15.067 0.657429 14.6838 1.13158 15.05L7.55606 19.2845C8.04617 19.6084 8.03021 20.4131 7.54834 20.7217ZM11.3982 17.6681H21.621V22.3323H11.3982V17.6681ZM7.54834 5.81329L1.08885 10.0707C0.601828 10.3928 0.000514957 9.98315 0.0015446 9.35538L0 0.828737C0 0.158644 0.657429 -0.224014 1.13158 0.141598L7.55606 4.37612C8.04617 4.70058 8.03021 5.50469 7.54834 5.81329Z" fill="black"/>
</svg>
