<svg width="33" height="34" viewBox="0 0 33 34" fill="none" xmlns="http://www.w3.org/2000/svg">
    <path d="M13.7128 33.5199H19.281V19.8977H32.9031V14.3295H19.281V0.707384H13.7128V14.3295H0.0906432V19.8977H13.7128V33.5199Z" fill="#DCDCDC"/>
</svg>
