<svg height="100%" viewBox="0 0 50 50" fill="inherit" xmlns="http://www.w3.org/2000/svg">
    <path d="M0.0242767 23.4149L0.0242767 28.1462L25.0001 4.73137L49.9759 28.1462V23.4148L25.0001 0L0.0242767 23.4149ZM0.0242767 45.2686L0.0242767 50L25.0001 26.5852L49.9759 50V45.2686L25.0001 21.8538L0.0242767 45.2686Z" />
</svg>
