<svg width="24" height="24" viewBox="0 0 24 24" fill="none" xmlns="http://www.w3.org/2000/svg">
<g id="bookmarks_24px">
<path id="icon/action/bookmarks_24px" fill-rule="evenodd" clip-rule="evenodd" d="M19 1H8.99C7.89 1 7 1.9 7 3H17C18.1 3 19 3.9 19 5V18L21 19V3C21 1.9 20.1 1 19 1ZM15 7V19.97L10.79 18.16L10 17.82L9.21 18.16L5 19.97V7H15ZM5 5H15C16.1 5 17 5.9 17 7V23L10 20L3 23V7C3 5.9 3.9 5 5 5Z" fill="black"/>
</g>
</svg>
