<svg height="100%" viewBox="0 0 23 22" fill="inherit" xmlns="http://www.w3.org/2000/svg">
    <path fill-rule="evenodd" clip-rule="evenodd" d="M11.1111 0C5.03908 0 0.111084 4.928 0.111084 11C0.111084 17.072 5.03908 22 11.1111 22C17.1831 22 22.1111 17.072 22.1111 11C22.1111 4.928 17.1831 0 11.1111 0ZM11.1111 19.8C6.26008 19.8 2.31108 15.851 2.31108 11C2.31108 6.149 6.26008 2.2 11.1111 2.2C15.9621 2.2 19.9111 6.149 19.9111 11C19.9111 15.851 15.9621 19.8 11.1111 19.8ZM8.91108 13.387L16.1601 6.13799L17.7111 7.69999L8.91108 16.5L4.51108 12.1L6.06208 10.549L8.91108 13.387Z" fill="inherit"/>
</svg>
