<svg width="50" height="50" viewBox="0 0 50 50" fill="none" xmlns="http://www.w3.org/2000/svg">
<path d="M25 0C11.2144 0 0 11.2144 0 25C0 38.7856 11.2144 50 25 50C38.7856 50 50 38.7856 50 25C50 11.2144 38.7856 0 25 0ZM34.2064 31.2603C35.0208 32.0751 35.0208 33.3916 34.2064 34.2064C33.8001 34.6127 33.2668 34.8167 32.7332 34.8167C32.1999 34.8167 31.6666 34.6127 31.2603 34.2064L25 27.9457L18.7397 34.2064C18.3334 34.6127 17.8001 34.8167 17.2668 34.8167C16.7332 34.8167 16.1999 34.6127 15.7936 34.2064C14.9792 33.3916 14.9792 32.0751 15.7936 31.2603L22.0543 25L15.7936 18.7397C14.9792 17.9249 14.9792 16.6084 15.7936 15.7936C16.6084 14.9792 17.9249 14.9792 18.7397 15.7936L25 22.0543L31.2603 15.7936C32.0751 14.9792 33.3916 14.9792 34.2064 15.7936C35.0208 16.6084 35.0208 17.9249 34.2064 18.7397L27.9457 25L34.2064 31.2603Z" fill="#D9534F"/>
</svg>
