<svg width="60" height="62" viewBox="0 0 60 62" fill="none" xmlns="http://www.w3.org/2000/svg">
<path d="M51.6663 4.99896H46.6674V0H43.3326V4.99896H16.6674V0H13.3326V4.99896H8.33368C3.73751 4.99896 0 8.73647 0 13.3326V53.3337C0 57.9299 3.73751 61.6674 8.33368 61.6674H51.6663C56.2625 61.6674 60 57.9299 60 53.3337V21.6663V18.3347V13.3326C60 8.73959 56.2625 4.99896 51.6663 4.99896ZM56.6684 53.3337C56.6684 56.0908 54.4265 58.3326 51.6694 58.3326H8.33368C5.5766 58.3326 3.33472 56.0908 3.33472 53.3337V21.6663H56.6684V53.3337ZM56.6684 18.3347H3.3316V13.3326C3.3316 10.5756 5.57348 8.33368 8.33056 8.33368H13.3295V11.6684H16.6674V8.33368H43.3358V11.6684H46.6705V8.33368H51.6694C54.4265 8.33368 56.6684 10.5756 56.6684 13.3326V18.3347Z" fill="black"/>
<path d="M26.6652 38.3328H33.3315C35.1706 38.3328 36.6663 36.8372 36.6663 34.9981V28.3318C36.6663 26.4927 35.1706 24.9971 33.3315 24.9971H26.6652C24.8261 24.9971 23.3305 26.4927 23.3305 28.3318V34.9981C23.3336 36.8372 24.8293 38.3328 26.6652 38.3328ZM26.6652 28.3318H33.3315L33.3347 34.9981H26.6652V28.3318V28.3318Z" fill="black"/>
<path d="M43.3326 38.3328H49.999C51.8381 38.3328 53.3337 36.8372 53.3337 34.9981V28.3318C53.3337 26.4927 51.8381 24.9971 49.999 24.9971H43.3326C41.4936 24.9971 39.9979 26.4927 39.9979 28.3318V34.9981C40.001 36.8372 41.4967 38.3328 43.3326 38.3328ZM43.3326 28.3318H49.999L50.0021 34.9981H43.3326V28.3318Z" fill="black"/>
<path d="M10.0011 54.9998H16.6674C18.5065 54.9998 20.0021 53.5042 20.0021 51.6651V44.9988C20.0021 43.1597 18.5065 41.6641 16.6674 41.6641H10.0011C8.16198 41.6641 6.66635 43.1597 6.66635 44.9988V51.6651C6.66635 53.5042 8.16198 54.9998 10.0011 54.9998ZM10.0011 44.9988H16.6674L16.6705 51.6651H10.0011V44.9988Z" fill="black"/>
<path d="M26.6652 54.9998H33.3315C35.1706 54.9998 36.6663 53.5042 36.6663 51.6651V44.9988C36.6663 43.1597 35.1706 41.6641 33.3315 41.6641H26.6652C24.8261 41.6641 23.3305 43.1597 23.3305 44.9988V51.6651C23.3336 53.5042 24.8293 54.9998 26.6652 54.9998ZM26.6652 44.9988H33.3315L33.3347 51.6651H26.6652V44.9988V44.9988Z" fill="black"/>
<path d="M43.3326 54.9998H49.999C51.8381 54.9998 53.3337 53.5042 53.3337 51.6651V44.9988C53.3337 43.1597 51.8381 41.6641 49.999 41.6641H43.3326C41.4936 41.6641 39.9979 43.1597 39.9979 44.9988V51.6651C40.001 53.5042 41.4967 54.9998 43.3326 54.9998ZM43.3326 44.9988H49.999L50.0021 51.6651H43.3326V44.9988Z" fill="black"/>
</svg>
