<svg width="83" height="98" viewBox="0 0 83 98" fill="none" xmlns="http://www.w3.org/2000/svg">
<path d="M82.2166 25.175C82.1166 22.575 82.1166 20.075 82.1166 17.675C82.1166 15.775 80.6166 14.275 78.7166 14.275C64.0166 14.175 52.8166 9.975 43.5166 0.975C42.2166 -0.325 40.0166 -0.325 38.7166 0.975C29.4166 9.975 18.2166 14.175 3.61657 14.175C1.71657 14.175 0.216573 15.675 0.216573 17.575C0.216573 19.975 0.216573 22.475 0.116573 25.175C-0.383427 49.875 -1.08342 83.575 40.0166 97.775C40.4166 97.875 40.7166 97.975 41.1166 97.975C41.5166 97.975 41.9166 97.875 42.2166 97.775C83.3166 83.575 82.6166 49.875 82.2166 25.175ZM41.1166 90.875C5.91657 78.075 6.41657 50.075 6.91657 25.375C6.91657 23.875 7.01657 22.475 7.01657 21.075C20.7166 20.375 31.7166 16.275 41.1166 8.075C50.5166 16.275 61.5166 20.475 75.2166 20.975C75.2166 22.375 75.2166 23.775 75.3166 25.275C75.8166 50.075 76.3166 78.075 41.1166 90.875Z" fill="black"/>
<path d="M52.9167 37.0751L36.4167 53.5751L29.3167 46.4751C28.0167 45.1751 25.8167 45.1751 24.4167 46.4751C23.1167 47.7751 23.1167 49.9751 24.4167 51.3751L33.9167 60.8751C34.6167 61.5751 35.4167 61.8751 36.3167 61.8751C37.2167 61.8751 38.1166 61.5751 38.7167 60.8751L57.7166 41.8751C59.0166 40.5751 59.0166 38.3751 57.7166 36.9751C56.4166 35.6751 54.2167 35.6751 52.9167 37.0751Z" fill="black"/>
</svg>
