<svg width="18" height="18" viewBox="0 0 18 18" fill="none" xmlns="http://www.w3.org/2000/svg">
<path d="M11.0997 18H6.90037C6.65105 18.0007 6.41161 17.9026 6.23452 17.7271C6.05744 17.5516 5.95716 17.3131 5.95567 17.0638V14.8841C5.76633 14.7869 5.58199 14.6802 5.40334 14.5645L3.50937 15.6544C3.29344 15.7783 3.03724 15.8119 2.79665 15.7478C2.55605 15.6836 2.35058 15.527 2.22504 15.3119L0.125748 11.6887C0.0642261 11.5822 0.0243248 11.4646 0.00832876 11.3426C-0.00766731 11.2206 0.000555987 11.0967 0.0325278 10.9779C0.0644997 10.8591 0.119592 10.7477 0.194651 10.6502C0.269709 10.5528 0.36326 10.471 0.469946 10.4098L2.36849 9.31992C2.36333 9.21328 2.36075 9.10723 2.36075 9.00176C2.36075 8.89629 2.36333 8.79023 2.36849 8.68359L0.469946 7.59375C0.363157 7.53257 0.269504 7.4509 0.194366 7.35343C0.119229 7.25596 0.0640856 7.14461 0.0321035 7.02577C0.000121467 6.90693 -0.0080696 6.78294 0.00800064 6.66093C0.0240709 6.53891 0.0640859 6.42127 0.125748 6.31477L2.22504 2.69368C2.35039 2.47874 2.55564 2.32208 2.79604 2.25787C3.03644 2.19365 3.29248 2.2271 3.50831 2.3509L5.40334 3.44075C5.582 3.32507 5.76634 3.21841 5.95567 3.12118V0.941489C5.95567 0.817585 5.98013 0.694899 6.02765 0.580467C6.07516 0.466034 6.1448 0.362105 6.23256 0.274638C6.32033 0.187172 6.42449 0.117889 6.53909 0.0707614C6.65369 0.0236339 6.77646 -0.000411033 6.90037 5.37397e-06H11.0997C11.349 -0.000836474 11.5885 0.0972607 11.7656 0.272774C11.9427 0.448288 12.043 0.686885 12.0444 0.936216V3.1159C12.2337 3.21312 12.418 3.31977 12.5967 3.43547L14.4907 2.34563C14.7066 2.22165 14.9628 2.18807 15.2034 2.25222C15.444 2.31636 15.6495 2.47303 15.775 2.68805L17.8746 6.30914C17.9362 6.41569 17.9761 6.53332 17.9921 6.6553C18.0081 6.77729 17.9998 6.90123 17.9679 7.02003C17.9359 7.13883 17.8808 7.25016 17.8057 7.34764C17.7307 7.44512 17.6371 7.52685 17.5304 7.58813L15.6319 8.67797C15.6371 8.78461 15.6396 8.89066 15.6396 8.99613C15.6396 9.1016 15.6371 9.20766 15.6319 9.3143L17.5304 10.4041C17.6371 10.4654 17.7307 10.5471 17.8057 10.6446C17.8808 10.7421 17.9359 10.8534 17.9679 10.9722C17.9998 11.091 18.0081 11.215 17.9921 11.337C17.9761 11.4589 17.9362 11.5766 17.8746 11.6831L15.7753 15.3042C15.65 15.5192 15.4447 15.6758 15.2043 15.74C14.9639 15.8042 14.7079 15.7708 14.4921 15.647L12.597 14.5571C12.4184 14.6728 12.234 14.7795 12.0447 14.8767V17.0564C12.0449 17.1805 12.0207 17.3034 11.9732 17.4181C11.9258 17.5328 11.8562 17.637 11.7683 17.7246C11.6805 17.8123 11.5762 17.8818 11.4615 17.929C11.3467 17.9763 11.2238 18.0004 11.0997 18V18ZM7.26496 16.6957H10.7347V14.04L11.1313 13.8705C11.5015 13.7114 11.8516 13.5091 12.1744 13.268L12.5197 13.0127L14.8261 14.3399L16.5559 11.3555L14.2481 10.0283L14.2962 9.60398C14.3422 9.20276 14.3422 8.79759 14.2962 8.39637L14.2481 7.97203L16.5555 6.64453L14.8257 3.65977L12.5201 4.98727L12.1748 4.73203C11.8521 4.49092 11.5021 4.28866 11.132 4.12946L10.7354 3.96V1.3043H7.26496V3.96L6.86838 4.12946C6.49832 4.28866 6.14831 4.49092 5.82559 4.73203L5.48034 4.98727L3.17396 3.66012L1.44418 6.64453L3.75196 7.97168L3.70379 8.39602C3.65782 8.79724 3.65782 9.20241 3.70379 9.60363L3.75196 10.028L1.44453 11.3555L3.17431 14.3402L5.47998 13.0127L5.82524 13.268C6.14796 13.5091 6.49797 13.7113 6.86803 13.8705L7.26461 14.04V16.6957H7.26496ZM8.99967 12.098C7.285 12.098 5.88993 10.7082 5.88993 9C5.88993 7.29176 7.285 5.90203 8.99967 5.90203C10.7143 5.90203 12.1094 7.29176 12.1094 9C12.1094 10.7082 10.7147 12.098 8.99967 12.098ZM8.99967 7.20703C8.64535 7.20849 8.29941 7.31489 8.00551 7.51278C7.71162 7.71068 7.48294 7.99121 7.34836 8.31896C7.21378 8.64671 7.17932 9.00698 7.24934 9.35429C7.31936 9.70161 7.49071 10.0204 7.74177 10.2704C7.99282 10.5204 8.31233 10.6905 8.65995 10.759C9.00756 10.8276 9.36771 10.7917 9.69492 10.6558C10.0221 10.5198 10.3017 10.29 10.4984 9.99535C10.6951 9.70066 10.8001 9.3543 10.8001 9C10.7985 8.52368 10.6081 8.06744 10.2706 7.73132C9.93306 7.3952 9.47601 7.20666 8.99967 7.20703V7.20703Z" fill="black"/>
<path d="M8.99965 12.0978C7.285 12.0978 5.88992 10.7081 5.88992 8.99982C5.88992 7.29158 7.285 5.90186 8.99965 5.90186C10.7143 5.90186 12.1094 7.29158 12.1094 8.99982C12.1094 10.7081 10.7143 12.0978 8.99965 12.0978ZM8.99965 7.20685C8.64534 7.20831 8.2994 7.31471 8.0055 7.51261C7.71161 7.7105 7.48294 7.99104 7.34835 8.31878C7.21377 8.64653 7.17932 9.0068 7.24933 9.35412C7.31935 9.70143 7.4907 10.0202 7.74176 10.2702C7.99281 10.5202 8.31232 10.6903 8.65994 10.7589C9.00755 10.8274 9.3677 10.7915 9.69491 10.6556C10.0221 10.5197 10.3017 10.2899 10.4984 9.99517C10.6951 9.70048 10.8001 9.35412 10.8001 8.99982C10.7985 8.5235 10.6081 8.06726 10.2706 7.73114C9.93305 7.39503 9.476 7.20648 8.99965 7.20685V7.20685Z" fill="black"/>
</svg>
