<svg width="62" height="62" viewBox="0 0 62 62" fill="none" xmlns="http://www.w3.org/2000/svg">
<path d="M6 6H4V8H6V6Z" fill="black"/>
<path d="M10 6H8V8H10V6Z" fill="black"/>
<path d="M14 6H12V8H14V6Z" fill="black"/>
<path d="M60 58H34V60H62V14H60V58Z" fill="black"/>
<path d="M30 2H0V12H30V19H4V49H30V58H2V14H0V60H30V62H32V0H30V2ZM26.586 32L30 35.414V43H13.156L22.464 32H26.586ZM27.414 30H25.09C25.513 27.493 27.493 25.514 30 25.09V32.586L27.414 30ZM2 10V4H30V10H2ZM6 47V21H30V23.069C26.388 23.522 23.523 26.388 23.069 30H21.536L10.536 43H8V45H30V47H6Z" fill="black"/>
<path d="M34 2V4H60V10H34V12H62V2H34Z" fill="black"/>
<path d="M36 19H34V21H36V19Z" fill="black"/>
<path d="M47 19H38V21H47V19Z" fill="black"/>
<path d="M54 19H49V21H54V19Z" fill="black"/>
<path d="M58 19H56V21H58V19Z" fill="black"/>
<path d="M38 23H34V25H38V23Z" fill="black"/>
<path d="M45 23H40V25H45V23Z" fill="black"/>
<path d="M52 23H47V25H52V23Z" fill="black"/>
<path d="M58 23H54V25H58V23Z" fill="black"/>
<path d="M54 27H34V29H54V27Z" fill="black"/>
<path d="M58 27H56V29H58V27Z" fill="black"/>
<path d="M58 31H52V33H58V31Z" fill="black"/>
<path d="M50 31H48V33H50V31Z" fill="black"/>
<path d="M46 31H44V33H46V31Z" fill="black"/>
<path d="M42 31H38V33H42V31Z" fill="black"/>
<path d="M36 31H34V33H36V31Z" fill="black"/>
<path d="M42 35H34V37H42V35Z" fill="black"/>
<path d="M48 35H44V37H48V35Z" fill="black"/>
<path d="M54 35H50V37H54V35Z" fill="black"/>
<path d="M58 35H56V37H58V35Z" fill="black"/>
<path d="M40 39H34V41H40V39Z" fill="black"/>
<path d="M44 39H42V41H44V39Z" fill="black"/>
<path d="M50 39H46V41H50V39Z" fill="black"/>
<path d="M58 39H52V41H58V39Z" fill="black"/>
<path d="M46 43H34V45H46V43Z" fill="black"/>
<path d="M52 43H48V45H52V43Z" fill="black"/>
<path d="M58 43H54V45H58V43Z" fill="black"/>
<path d="M36 47H34V49H36V47Z" fill="black"/>
<path d="M42 47H38V49H42V47Z" fill="black"/>
<path d="M48 47H44V49H48V47Z" fill="black"/>
<path d="M54 47H50V49H54V47Z" fill="black"/>
<path d="M58 47H56V49H58V47Z" fill="black"/>
</svg>
